{
    "info-version": "1.0",
    "dict": {
        "Category": "application",
        "Runtime": "qml",
        "DisplayName": "Tea Service QML",
        "Subcategory": "utility",
        "MainQML": "mt.qml",
        "Version": "1.0",
        "Identifier": "com.nokia.qt3d.teaserviceqml",
        "Summary": "Tea Service QML Demo"
    }
}
