{
    "info-version": "1.0",
    "dict": {
        "Category": "application",
        "Runtime": "qml",
        "DisplayName": "Scaling Test",
        "Subcategory": "utility",
        "MainQML": "mt.qml",
        "Version": "1.0",
        "Identifier": "com.nokia.qt3d.scalingtest",
        "Summary": "Scaling Test"
    }
}
