{
    "info-version": "1.0",
    "dict": {
        "Category": "application",
        "Runtime": "qml",
        "DisplayName": "Basket QML",
        "Subcategory": "utility",
        "MainQML": "mt.qml",
        "Version": "1.0",
        "Identifier": "com.nokia.qt3d.basket",
        "Summary": "Basket QML Demo"
    }
}
